How climate and envrionmental justice tools are used in research studies
…
In [14]:

Code

df_top_cites <- all_studies_merged |>
  filter(!is.na(cites)) |>
  group_by(tool_name) |>
  slice_max(order_by = cites, n = 10, with_ties = FALSE) |>
  ungroup() |>
  select(tool_name, year, title, cites, authors) |>
  arrange(tool_name, desc(cites))

df_top_cites

# A tibble: 34 × 5
   tool_name                                            year title cites authors
   <chr>                                               <int> <chr> <int> <chr>  
 1 Climate Risk Viewer                                    NA USDA…    27 I Fore…
 2 Climate Risk Viewer                                    NA Fore…     0 A Duga…
 3 Climate Risk Viewer                                  2025 Fore…     0 PW Cla…
 4 Climate and Economic Justice Screening Tool (CEJST)  2023 Metr…    73 E Bake…
 5 Climate and Economic Justice Screening Tool (CEJST)  2023 Char…    68 PGT Le…
 6 Climate and Economic Justice Screening Tool (CEJST)  2022 Resi…    64 M Manw…
 7 Climate and Economic Justice Screening Tool (CEJST)  2023 Air …    62 Y Wang…
 8 Climate and Economic Justice Screening Tool (CEJST)  2022 Mapp…    59 D Raim…
 9 Climate and Economic Justice Screening Tool (CEJST)  2023 Eval…    45 S Kime…
10 Climate and Economic Justice Screening Tool (CEJST)  2024 Meas…    43 JA Cas…
# ℹ 24 more rows
…
In [15]:

Code

df_top_cpy <- all_studies_merged |>
  filter(!is.na(cites_per_year)) |>
  group_by(tool_name) |>
  slice_max(order_by = cites_per_year, n = 10, with_ties = FALSE) |>
  ungroup()

df_top_cpy |>
  select(tool_name, year, title, cites_per_year, cites, authors) |>
  arrange(tool_name, desc(cites_per_year))

# A tibble: 34 × 6
   tool_name                             year title cites_per_year cites authors
   <chr>                                <int> <chr>          <dbl> <int> <chr>  
 1 Climate Risk Viewer                     NA Fore…            0       0 A Duga…
 2 Climate Risk Viewer                     NA USDA…            0      27 I Fore…
 3 Climate Risk Viewer                   2025 Fore…            0       0 PW Cla…
 4 Climate and Economic Justice Screen…  2024 Meas…           43      43 JA Cas…
 5 Climate and Economic Justice Screen…  2024 Rece…           41      41 L Cain…
 6 Climate and Economic Justice Screen…  2023 Metr…           36.5    73 E Bake…
 7 Climate and Economic Justice Screen…  2024 Elec…           36      36 GJ Car…
 8 Climate and Economic Justice Screen…  2023 Char…           34      68 PGT Le…
 9 Climate and Economic Justice Screen…  2024 Heal…           31      31 T Xue,…
10 Climate and Economic Justice Screen…  2023 Air …           31      62 Y Wang…
# ℹ 24 more rows
…
