How climate and envrionmental justice tools are used in research studies
…
Code

df_top_cites <- all_tools %>%
  filter(!is.na(cites)) %>%
  group_by(tool_name) %>%
  slice_max(order_by = cites, n = 10, with_ties = FALSE) %>%
  ungroup() %>%
  select(tool_name, year, title, cites, authors) %>%
  arrange(tool_name, desc(cites))

# Show table (optional)
df_top_cites

# A tibble: 46 × 5
   tool_name            year title                                 cites authors
   <chr>               <int> <chr>                                 <int> <chr>  
 1 Climate Risk Viewer  2024 Transition versus physical climate r…   234 G Bua,…
 2 Climate Risk Viewer    NA USDA Forest Service                      28 I Fore…
 3 Climate Risk Viewer  2024 Physical and transition risk premium…    15 JV Bat…
 4 Climate Risk Viewer  2024 Perceived climate risk and stock pri…    13 H Ben …
 5 Climate Risk Viewer  2023 Measuring the climate risk exposure …    13 H Jung…
 6 Climate Risk Viewer  2024 A practical framework for applied fo…     7 AD Bow…
 7 Climate Risk Viewer  2024 Physical climate risk factors and an…     6 H Jung…
 8 Climate Risk Viewer  2025 Land of opportunity: potential for r…     6 T Mai,…
 9 Climate Risk Viewer  2024 Climate risks, corporate bonds, and …     5 V Lalw…
10 Climate Risk Viewer  2023 Firm-specific climate risk estimated…     3 T Dang…
# ℹ 36 more rows
…
This shows which studies are “most cited relative to their age.”

Code

df_top_cpy <- all_tools %>%
  filter(!is.na(cites_per_year)) %>%
  group_by(tool_name) %>%
  slice_max(order_by = cites_per_year, n = 10, with_ties = FALSE) %>%
  ungroup()

df_top_cpy %>% 
  select(tool_name, year, title, cites_per_year, cites, authors) %>%
  arrange(tool_name, desc(cites_per_year))

# A tibble: 46 × 6
   tool_name            year title                  cites_per_year cites authors
   <chr>               <int> <chr>                           <dbl> <int> <chr>  
 1 Climate Risk Viewer  2024 Transition versus phy…          234     234 G Bua,…
 2 Climate Risk Viewer  2024 Physical and transiti…           15      15 JV Bat…
 3 Climate Risk Viewer  2024 Perceived climate ris…           13      13 H Ben …
 4 Climate Risk Viewer  2024 A practical framework…            7       7 AD Bow…
 5 Climate Risk Viewer  2023 Measuring the climate…            6.5    13 H Jung…
 6 Climate Risk Viewer  2024 Physical climate risk…            6       6 H Jung…
 7 Climate Risk Viewer  2025 Land of opportunity: …            6       6 T Mai,…
 8 Climate Risk Viewer  2024 Climate risks, corpor…            5       5 V Lalw…
 9 Climate Risk Viewer  2023 Firm-specific climate…            1.5     3 T Dang…
10 Climate Risk Viewer  2025 Climate Extrapolation…            1       1 G Verd…
# ℹ 36 more rows
…
